{
	"info": {
		"_postman_id": "507bd0d0-4656-4c23-9b40-e236137d757d",
		"name": "apitsg",
		"description": "Prueba tecnica",
		"schema": "https://schema.getpostman.com/json/collection/v2.1.0/collection.json"
	},
	"item": [
		{
			"_postman_id": "458ba33f-bf66-4b08-9995-b3418641a084",
			"name": "recursos",
			"item": [
				{
					"_postman_id": "986161ac-42df-4668-a876-25f8d6dc731a",
					"name": "/recurso",
					"request": {
						"method": "POST",
						"header": [
							{
								"key": "Content-Type",
								"value": "application/x-www-form-urlencoded"
							}
						],
						"body": {
							"mode": "urlencoded",
							"urlencoded": [
								{
									"key": "nombre",
									"value": "Recurso1",
									"sessionValue": "Recurso1",
									"description": "Nombre del recurso",
									"type": "text"
								},
								{
									"key": "serial",
									"value": "123456789125456568978",
									"sessionValue": "hkh124343",
									"description": "Serial (Debe ser un valor unico)",
									"type": "text"
								},
								{
									"key": "recurso_estado_id",
									"value": "1",
									"sessionValue": "1",
									"description": "Id del estado ",
									"type": "text"
								},
								{
									"key": "proveedor_id",
									"value": "1",
									"sessionValue": "1",
									"description": "Id del proveedor",
									"type": "text"
								},
								{
									"key": "persona_id",
									"value": "0",
									"sessionValue": "3",
									"description": "Id de persona responsable",
									"type": "text"
								},
								{
									"key": "marca",
									"value": "Hp",
									"sessionValue": "Hp",
									"description": "Marca del dproducto",
									"type": "text"
								},
								{
									"key": "recurso_tipo_id",
									"value": "1",
									"sessionValue": "1",
									"description": "Id tipo de producto",
									"type": "text"
								}
							]
						},
						"url": {
							"raw": "{{baseUrl}}/recurso",
							"host": [
								"{{baseUrl}}"
							],
							"path": [
								"recurso"
							]
						},
						"description": "crea un nuevo recurso"
					},
					"response": [
						{
							"id": "74d9f457-5244-4566-a5d2-70209a533f7f",
							"name": "/recurso",
							"originalRequest": {
								"method": "POST",
								"header": [
									{
										"key": "Content-Type",
										"value": "application/x-www-form-urlencoded",
										"disabled": false
									}
								],
								"body": {
									"mode": "urlencoded",
									"urlencoded": [
										{
											"key": "nombre",
											"value": "Recurso1",
											"sessionValue": "Recurso1",
											"description": "Nombre del recurso",
											"type": "text"
										},
										{
											"key": "serial",
											"value": "123456789125456568978",
											"sessionValue": "hkh124343",
											"description": "Serial (Debe ser un valor unico)",
											"type": "text"
										},
										{
											"key": "recurso_estado_id",
											"value": "1",
											"sessionValue": "1",
											"description": "Id del estado ",
											"type": "text"
										},
										{
											"key": "proveedor_id",
											"value": "1",
											"sessionValue": "1",
											"description": "Id del proveedor",
											"type": "text"
										},
										{
											"key": "persona_id",
											"value": "0",
											"sessionValue": "3",
											"description": "Id de persona responsable",
											"type": "text"
										},
										{
											"key": "marca",
											"value": "Hp",
											"sessionValue": "Hp",
											"description": "Marca del dproducto",
											"type": "text"
										},
										{
											"key": "recurso_tipo_id",
											"value": "1",
											"sessionValue": "1",
											"description": "Id tipo de producto",
											"type": "text"
										}
									]
								},
								"url": {
									"raw": "{{baseUrl}}/recurso",
									"host": [
										"{{baseUrl}}"
									],
									"path": [
										"recurso"
									]
								}
							},
							"status": "OK",
							"code": 200,
							"_postman_previewlanguage": "json",
							"header": [
								{
									"key": "Access-Control-Allow-Origin",
									"value": "*",
									"name": "Access-Control-Allow-Origin",
									"description": "Specifies a URI that may access the resource. For requests without credentials, the server may specify '*' as a wildcard, thereby allowing any origin to access the resource."
								},
								{
									"key": "Connection",
									"value": "keep-alive",
									"name": "Connection",
									"description": "Options that are desired for the connection"
								},
								{
									"key": "Content-Length",
									"value": "62",
									"name": "Content-Length",
									"description": "The length of the response body in octets (8-bit bytes)"
								},
								{
									"key": "Content-Type",
									"value": "application/json",
									"name": "Content-Type",
									"description": "The mime type of this content"
								},
								{
									"key": "Date",
									"value": "Tue, 07 Aug 2018 22:19:13 GMT",
									"name": "Date",
									"description": "The date and time that the message was sent"
								},
								{
									"key": "Server",
									"value": "openresty/1.9.15.1",
									"name": "Server",
									"description": "A name for the server"
								},
								{
									"key": "X-Clacks-Overhead",
									"value": "GNU Terry Pratchett",
									"name": "X-Clacks-Overhead",
									"description": "Custom header"
								}
							],
							"cookie": [],
							"body": "{\n  \"cod\": 200, \n  \"id\": 1, \n  \"mensaje\": \"guarado exitoso\"\n}\n"
						}
					]
				},
				{
					"_postman_id": "4abe183d-f76e-4fcc-8bed-ceec8b33b678",
					"name": "/recurso",
					"request": {
						"method": "GET",
						"header": [],
						"body": {},
						"url": {
							"raw": "http://localhost:5000/recurso",
							"protocol": "http",
							"host": [
								"localhost"
							],
							"port": "5000",
							"path": [
								"recurso"
							]
						},
						"description": "Obtiene todos los recursos"
					},
					"response": [
						{
							"id": "38f1c562-78e4-4b2e-9fac-77dc0cef89a6",
							"name": "/recurso",
							"originalRequest": {
								"method": "GET",
								"header": [],
								"body": {},
								"url": {
									"raw": "{{baseUrl}}/recurso",
									"host": [
										"{{baseUrl}}"
									],
									"path": [
										"recurso"
									]
								}
							},
							"status": "OK",
							"code": 200,
							"_postman_previewlanguage": "json",
							"header": [
								{
									"key": "Access-Control-Allow-Origin",
									"value": "*",
									"name": "Access-Control-Allow-Origin",
									"description": "Specifies a URI that may access the resource. For requests without credentials, the server may specify '*' as a wildcard, thereby allowing any origin to access the resource."
								},
								{
									"key": "Connection",
									"value": "keep-alive",
									"name": "Connection",
									"description": "Options that are desired for the connection"
								},
								{
									"key": "Content-Encoding",
									"value": "gzip",
									"name": "Content-Encoding",
									"description": "The type of encoding used on the data."
								},
								{
									"key": "Content-Type",
									"value": "application/json",
									"name": "Content-Type",
									"description": "The mime type of this content"
								},
								{
									"key": "Date",
									"value": "Tue, 07 Aug 2018 22:20:04 GMT",
									"name": "Date",
									"description": "The date and time that the message was sent"
								},
								{
									"key": "Server",
									"value": "openresty/1.9.15.1",
									"name": "Server",
									"description": "A name for the server"
								},
								{
									"key": "Transfer-Encoding",
									"value": "chunked",
									"name": "Transfer-Encoding",
									"description": "The form of encoding used to safely transfer the entity to the user. Currently defined methods are: chunked, compress, deflate, gzip, identity."
								},
								{
									"key": "Vary",
									"value": "Accept-Encoding",
									"name": "Vary",
									"description": "Tells downstream proxies how to match future request headers to decide whether the cached response can be used rather than requesting a fresh one from the origin server."
								},
								{
									"key": "X-Clacks-Overhead",
									"value": "GNU Terry Pratchett",
									"name": "X-Clacks-Overhead",
									"description": "Custom header"
								}
							],
							"cookie": [],
							"body": "[\n  {\n    \"asignado_en\": null, \n    \"creado_en\": \"Tue, 07 Aug 2018 22:19:13 GMT\", \n    \"id\": 1, \n    \"marca\": \"Hp\", \n    \"nombre\": \"Recurso1\", \n    \"persona_id\": null, \n    \"proveedor_id\": 1, \n    \"recurso_estado_id\": 1, \n    \"recurso_tipo_id\": 1, \n    \"serial\": \"123456789125456568978\"\n  }\n]\n"
						}
					]
				},
				{
					"_postman_id": "b8605c7c-0cd4-4cce-964f-abf86f5cf49d",
					"name": "/recurso/id",
					"request": {
						"method": "GET",
						"header": [],
						"body": {},
						"url": {
							"raw": "{{baseUrl}}/recurso/1",
							"host": [
								"{{baseUrl}}"
							],
							"path": [
								"recurso",
								"1"
							]
						},
						"description": "Obtiene un recurso por su id"
					},
					"response": [
						{
							"id": "bb3c79a6-d421-4bb7-93ec-bb9f95a3e903",
							"name": "/recurso/id",
							"originalRequest": {
								"method": "GET",
								"header": [],
								"body": {},
								"url": {
									"raw": "{{baseUrl}}/recurso/1",
									"host": [
										"{{baseUrl}}"
									],
									"path": [
										"recurso",
										"1"
									]
								}
							},
							"status": "OK",
							"code": 200,
							"_postman_previewlanguage": "json",
							"header": [
								{
									"key": "Access-Control-Allow-Origin",
									"value": "*",
									"name": "Access-Control-Allow-Origin",
									"description": "Specifies a URI that may access the resource. For requests without credentials, the server may specify '*' as a wildcard, thereby allowing any origin to access the resource."
								},
								{
									"key": "Connection",
									"value": "keep-alive",
									"name": "Connection",
									"description": "Options that are desired for the connection"
								},
								{
									"key": "Content-Encoding",
									"value": "gzip",
									"name": "Content-Encoding",
									"description": "The type of encoding used on the data."
								},
								{
									"key": "Content-Type",
									"value": "application/json",
									"name": "Content-Type",
									"description": "The mime type of this content"
								},
								{
									"key": "Date",
									"value": "Tue, 07 Aug 2018 22:20:36 GMT",
									"name": "Date",
									"description": "The date and time that the message was sent"
								},
								{
									"key": "Server",
									"value": "openresty/1.9.15.1",
									"name": "Server",
									"description": "A name for the server"
								},
								{
									"key": "Transfer-Encoding",
									"value": "chunked",
									"name": "Transfer-Encoding",
									"description": "The form of encoding used to safely transfer the entity to the user. Currently defined methods are: chunked, compress, deflate, gzip, identity."
								},
								{
									"key": "Vary",
									"value": "Accept-Encoding",
									"name": "Vary",
									"description": "Tells downstream proxies how to match future request headers to decide whether the cached response can be used rather than requesting a fresh one from the origin server."
								},
								{
									"key": "X-Clacks-Overhead",
									"value": "GNU Terry Pratchett",
									"name": "X-Clacks-Overhead",
									"description": "Custom header"
								}
							],
							"cookie": [],
							"body": "{\n  \"asignado_en\": null, \n  \"creado_en\": \"Tue, 07 Aug 2018 22:19:13 GMT\", \n  \"id\": 1, \n  \"marca\": \"Hp\", \n  \"nombre\": \"Recurso1\", \n  \"persona_id\": null, \n  \"proveedor_id\": 1, \n  \"recurso_estado_id\": 1, \n  \"recurso_tipo_id\": 1, \n  \"serial\": \"123456789125456568978\"\n}\n"
						}
					]
				},
				{
					"_postman_id": "d4cb43fb-3a20-4f01-8e73-7b71ec0cc6c1",
					"name": "/recurso/id",
					"request": {
						"method": "PUT",
						"header": [],
						"body": {
							"mode": "urlencoded",
							"urlencoded": [
								{
									"key": "nombre",
									"value": "Recurso1",
									"sessionValue": "Recurso1",
									"type": "text"
								},
								{
									"key": "serial",
									"value": "1234",
									"sessionValue": "hkh124343",
									"type": "text"
								},
								{
									"key": "recurso_estado_id",
									"value": "1",
									"sessionValue": "1",
									"type": "text"
								},
								{
									"key": "proveedor_id",
									"value": "1",
									"sessionValue": "1",
									"type": "text"
								},
								{
									"key": "persona_id",
									"value": "1",
									"sessionValue": "3",
									"type": "text"
								},
								{
									"key": "marca",
									"value": "Hp",
									"sessionValue": "Hp",
									"type": "text"
								},
								{
									"key": "recurso_tipo_is",
									"value": "1",
									"sessionValue": "1",
									"type": "text"
								}
							]
						},
						"url": {
							"raw": "{{baseUrl}}/recurso/2",
							"host": [
								"{{baseUrl}}"
							],
							"path": [
								"recurso",
								"2"
							]
						},
						"description": "Actualiza un recurso por su id\n"
					},
					"response": [
						{
							"id": "600a2567-f034-41b2-b884-efa23eed5e7f",
							"name": "/recurso/id",
							"originalRequest": {
								"method": "PUT",
								"header": [],
								"body": {
									"mode": "urlencoded",
									"urlencoded": [
										{
											"key": "nombre",
											"value": "Recurso1",
											"sessionValue": "Recurso1",
											"type": "text"
										},
										{
											"key": "serial",
											"value": "1234",
											"sessionValue": "hkh124343",
											"type": "text"
										},
										{
											"key": "recurso_estado_id",
											"value": "1",
											"sessionValue": "1",
											"type": "text"
										},
										{
											"key": "proveedor_id",
											"value": "1",
											"sessionValue": "1",
											"type": "text"
										},
										{
											"key": "persona_id",
											"value": "1",
											"sessionValue": "3",
											"type": "text"
										},
										{
											"key": "marca",
											"value": "Hp",
											"sessionValue": "Hp",
											"type": "text"
										},
										{
											"key": "recurso_tipo_is",
											"value": "1",
											"sessionValue": "1",
											"type": "text"
										}
									]
								},
								"url": {
									"raw": "{{baseUrl}}/recurso/2",
									"host": [
										"{{baseUrl}}"
									],
									"path": [
										"recurso",
										"2"
									]
								}
							},
							"status": "NOT FOUND",
							"code": 404,
							"_postman_previewlanguage": "json",
							"header": [
								{
									"key": "Access-Control-Allow-Origin",
									"value": "*",
									"name": "Access-Control-Allow-Origin",
									"description": "Specifies a URI that may access the resource. For requests without credentials, the server may specify '*' as a wildcard, thereby allowing any origin to access the resource."
								},
								{
									"key": "Connection",
									"value": "keep-alive",
									"name": "Connection",
									"description": "Options that are desired for the connection"
								},
								{
									"key": "Content-Length",
									"value": "50",
									"name": "Content-Length",
									"description": "The length of the response body in octets (8-bit bytes)"
								},
								{
									"key": "Content-Type",
									"value": "application/json",
									"name": "Content-Type",
									"description": "The mime type of this content"
								},
								{
									"key": "Date",
									"value": "Tue, 07 Aug 2018 22:21:37 GMT",
									"name": "Date",
									"description": "The date and time that the message was sent"
								},
								{
									"key": "Server",
									"value": "openresty/1.9.15.1",
									"name": "Server",
									"description": "A name for the server"
								}
							],
							"cookie": [],
							"body": "{\n  \"cod\": 404, \n  \"mensaje\": \"guarado exitoso\"\n}\n"
						}
					]
				},
				{
					"_postman_id": "24e124b6-f134-48a1-89bb-aae73641c3fb",
					"name": "/recurso/id",
					"request": {
						"method": "DELETE",
						"header": [],
						"body": {},
						"url": {
							"raw": "{{baseUrl}}/recurso/1",
							"host": [
								"{{baseUrl}}"
							],
							"path": [
								"recurso",
								"1"
							]
						},
						"description": "Borra un recurso\n"
					},
					"response": [
						{
							"id": "ca6c1419-66ae-4eaa-b6e6-31988587dec4",
							"name": "/recurso/id",
							"originalRequest": {
								"method": "DELETE",
								"header": [],
								"body": {},
								"url": {
									"raw": "{{baseUrl}}/recurso/1",
									"host": [
										"{{baseUrl}}"
									],
									"path": [
										"recurso",
										"1"
									]
								}
							},
							"status": "OK",
							"code": 200,
							"_postman_previewlanguage": "json",
							"header": [
								{
									"key": "Access-Control-Allow-Origin",
									"value": "*",
									"name": "Access-Control-Allow-Origin",
									"description": "Specifies a URI that may access the resource. For requests without credentials, the server may specify '*' as a wildcard, thereby allowing any origin to access the resource."
								},
								{
									"key": "Connection",
									"value": "keep-alive",
									"name": "Connection",
									"description": "Options that are desired for the connection"
								},
								{
									"key": "Content-Length",
									"value": "61",
									"name": "Content-Length",
									"description": "The length of the response body in octets (8-bit bytes)"
								},
								{
									"key": "Content-Type",
									"value": "application/json",
									"name": "Content-Type",
									"description": "The mime type of this content"
								},
								{
									"key": "Date",
									"value": "Tue, 07 Aug 2018 22:22:12 GMT",
									"name": "Date",
									"description": "The date and time that the message was sent"
								},
								{
									"key": "Server",
									"value": "openresty/1.9.15.1",
									"name": "Server",
									"description": "A name for the server"
								},
								{
									"key": "X-Clacks-Overhead",
									"value": "GNU Terry Pratchett",
									"name": "X-Clacks-Overhead",
									"description": "Custom header"
								}
							],
							"cookie": [],
							"body": "{\n  \"cod\": 200, \n  \"mensaje\": \"borrado satisfactoriamente\"\n}\n"
						}
					]
				},
				{
					"_postman_id": "32f874b9-0eab-4827-9b1e-0e0620bc69e0",
					"name": "/recurso/proveedor",
					"request": {
						"method": "GET",
						"header": [],
						"body": {},
						"url": {
							"raw": "{{baseUrl}}/recurso/proveedor",
							"host": [
								"{{baseUrl}}"
							],
							"path": [
								"recurso",
								"proveedor"
							]
						},
						"description": "Obtine listado de los proveedores disponibles"
					},
					"response": [
						{
							"id": "c7d2da92-97c7-47b9-8a82-dbfa62fc9ee2",
							"name": "/recurso/proveedor",
							"originalRequest": {
								"method": "GET",
								"header": [],
								"body": {},
								"url": {
									"raw": "{{baseUrl}}/recurso/proveedor",
									"host": [
										"{{baseUrl}}"
									],
									"path": [
										"recurso",
										"proveedor"
									]
								}
							},
							"status": "OK",
							"code": 200,
							"_postman_previewlanguage": "json",
							"header": [
								{
									"key": "Access-Control-Allow-Origin",
									"value": "*",
									"name": "Access-Control-Allow-Origin",
									"description": "Specifies a URI that may access the resource. For requests without credentials, the server may specify '*' as a wildcard, thereby allowing any origin to access the resource."
								},
								{
									"key": "Connection",
									"value": "keep-alive",
									"name": "Connection",
									"description": "Options that are desired for the connection"
								},
								{
									"key": "Content-Length",
									"value": "189",
									"name": "Content-Length",
									"description": "The length of the response body in octets (8-bit bytes)"
								},
								{
									"key": "Content-Type",
									"value": "application/json",
									"name": "Content-Type",
									"description": "The mime type of this content"
								},
								{
									"key": "Date",
									"value": "Tue, 07 Aug 2018 22:23:01 GMT",
									"name": "Date",
									"description": "The date and time that the message was sent"
								},
								{
									"key": "Server",
									"value": "openresty/1.9.15.1",
									"name": "Server",
									"description": "A name for the server"
								},
								{
									"key": "X-Clacks-Overhead",
									"value": "GNU Terry Pratchett",
									"name": "X-Clacks-Overhead",
									"description": "Custom header"
								}
							],
							"cookie": [],
							"body": "[\n  {\n    \"id\": 1, \n    \"nombre\": \"TIGOUNE\"\n  }, \n  {\n    \"id\": 2, \n    \"nombre\": \"CLARO\"\n  }, \n  {\n    \"id\": 3, \n    \"nombre\": \"IMUSA\"\n  }, \n  {\n    \"id\": 4, \n    \"nombre\": \"LENOVO\"\n  }\n]\n"
						}
					]
				},
				{
					"_postman_id": "033f38ca-d860-482d-a71f-1149b7e650a6",
					"name": "/recurso/tipo",
					"request": {
						"method": "GET",
						"header": [],
						"body": {},
						"url": {
							"raw": "{{baseUrl}}/recurso/tipo",
							"host": [
								"{{baseUrl}}"
							],
							"path": [
								"recurso",
								"tipo"
							]
						},
						"description": "Obtiene una lista de los tipos de recurso"
					},
					"response": [
						{
							"id": "3e00c247-d8a6-4467-8358-035ab490c2b3",
							"name": "/recurso/tipo",
							"originalRequest": {
								"method": "GET",
								"header": [],
								"body": {},
								"url": {
									"raw": "{{baseUrl}}/recurso/tipo",
									"host": [
										"{{baseUrl}}"
									],
									"path": [
										"recurso",
										"tipo"
									]
								}
							},
							"status": "OK",
							"code": 200,
							"_postman_previewlanguage": "json",
							"header": [
								{
									"key": "Access-Control-Allow-Origin",
									"value": "*",
									"name": "Access-Control-Allow-Origin",
									"description": "Specifies a URI that may access the resource. For requests without credentials, the server may specify '*' as a wildcard, thereby allowing any origin to access the resource."
								},
								{
									"key": "Connection",
									"value": "keep-alive",
									"name": "Connection",
									"description": "Options that are desired for the connection"
								},
								{
									"key": "Content-Length",
									"value": "162",
									"name": "Content-Length",
									"description": "The length of the response body in octets (8-bit bytes)"
								},
								{
									"key": "Content-Type",
									"value": "application/json",
									"name": "Content-Type",
									"description": "The mime type of this content"
								},
								{
									"key": "Date",
									"value": "Tue, 07 Aug 2018 22:24:05 GMT",
									"name": "Date",
									"description": "The date and time that the message was sent"
								},
								{
									"key": "Server",
									"value": "openresty/1.9.15.1",
									"name": "Server",
									"description": "A name for the server"
								},
								{
									"key": "X-Clacks-Overhead",
									"value": "GNU Terry Pratchett",
									"name": "X-Clacks-Overhead",
									"description": "Custom header"
								}
							],
							"cookie": [],
							"body": "[\n  {\n    \"id\": 1, \n    \"nombre\": \"Tecnol\\u00f3gico\"\n  }, \n  {\n    \"id\": 2, \n    \"nombre\": \"Oficina\"\n  }, \n  {\n    \"id\": 3, \n    \"nombre\": \"Cafeter\\u00eda\"\n  }\n]\n"
						}
					]
				},
				{
					"_postman_id": "647929bb-7d2e-46fd-976e-c59b53ce0ff1",
					"name": "/recurso/estado",
					"request": {
						"method": "GET",
						"header": [],
						"body": {},
						"url": {
							"raw": "{{baseUrl}}/recurso/estado",
							"host": [
								"{{baseUrl}}"
							],
							"path": [
								"recurso",
								"estado"
							]
						},
						"description": "Obtiene listado de los estado de los recusos"
					},
					"response": []
				}
			]
		},
		{
			"_postman_id": "f2e95ea6-57b9-42ab-8d80-f605ab6563a4",
			"name": "personas",
			"item": [
				{
					"_postman_id": "4cadcf6d-5724-412a-bd86-f5f882456485",
					"name": "/persona",
					"request": {
						"method": "GET",
						"header": [],
						"body": {},
						"url": {
							"raw": "{{baseUrl}}/persona",
							"host": [
								"{{baseUrl}}"
							],
							"path": [
								"persona"
							]
						}
					},
					"response": [
						{
							"id": "ba9bb6f4-b00c-4ead-8ed3-c91ad50af2eb",
							"name": "/persona",
							"originalRequest": {
								"method": "GET",
								"header": [],
								"body": {},
								"url": {
									"raw": "{{baseUrl}}/persona",
									"host": [
										"{{baseUrl}}"
									],
									"path": [
										"persona"
									]
								}
							},
							"status": "OK",
							"code": 200,
							"_postman_previewlanguage": "json",
							"header": [
								{
									"key": "Access-Control-Allow-Origin",
									"value": "*",
									"name": "Access-Control-Allow-Origin",
									"description": "Specifies a URI that may access the resource. For requests without credentials, the server may specify '*' as a wildcard, thereby allowing any origin to access the resource."
								},
								{
									"key": "Connection",
									"value": "keep-alive",
									"name": "Connection",
									"description": "Options that are desired for the connection"
								},
								{
									"key": "Content-Length",
									"value": "118",
									"name": "Content-Length",
									"description": "The length of the response body in octets (8-bit bytes)"
								},
								{
									"key": "Content-Type",
									"value": "application/json",
									"name": "Content-Type",
									"description": "The mime type of this content"
								},
								{
									"key": "Date",
									"value": "Tue, 07 Aug 2018 22:26:08 GMT",
									"name": "Date",
									"description": "The date and time that the message was sent"
								},
								{
									"key": "Server",
									"value": "openresty/1.9.15.1",
									"name": "Server",
									"description": "A name for the server"
								},
								{
									"key": "X-Clacks-Overhead",
									"value": "GNU Terry Pratchett",
									"name": "X-Clacks-Overhead",
									"description": "Custom header"
								}
							],
							"cookie": [],
							"body": "[\n  {\n    \"id\": 1, \n    \"nombre\": \"Victor Manuel Martinez\", \n    \"persona_tipo_id\": 1, \n    \"telefono\": \"34234\"\n  }\n]\n"
						}
					]
				},
				{
					"_postman_id": "a1505f9e-bef2-4522-9985-c5d5a2f84067",
					"name": "/persona/id",
					"request": {
						"method": "GET",
						"header": [],
						"body": {},
						"url": {
							"raw": "{{baseUrl}}/persona/1",
							"host": [
								"{{baseUrl}}"
							],
							"path": [
								"persona",
								"1"
							]
						}
					},
					"response": [
						{
							"id": "f6a5da23-1f2a-4ebc-82ad-81507742117e",
							"name": "/persona/id",
							"originalRequest": {
								"method": "GET",
								"header": [],
								"body": {},
								"url": {
									"raw": "{{baseUrl}}/persona/1",
									"host": [
										"{{baseUrl}}"
									],
									"path": [
										"persona",
										"1"
									]
								}
							},
							"status": "OK",
							"code": 200,
							"_postman_previewlanguage": "json",
							"header": [
								{
									"key": "Access-Control-Allow-Origin",
									"value": "*",
									"name": "Access-Control-Allow-Origin",
									"description": "Specifies a URI that may access the resource. For requests without credentials, the server may specify '*' as a wildcard, thereby allowing any origin to access the resource."
								},
								{
									"key": "Connection",
									"value": "keep-alive",
									"name": "Connection",
									"description": "Options that are desired for the connection"
								},
								{
									"key": "Content-Length",
									"value": "102",
									"name": "Content-Length",
									"description": "The length of the response body in octets (8-bit bytes)"
								},
								{
									"key": "Content-Type",
									"value": "application/json",
									"name": "Content-Type",
									"description": "The mime type of this content"
								},
								{
									"key": "Date",
									"value": "Tue, 07 Aug 2018 22:26:31 GMT",
									"name": "Date",
									"description": "The date and time that the message was sent"
								},
								{
									"key": "Server",
									"value": "openresty/1.9.15.1",
									"name": "Server",
									"description": "A name for the server"
								},
								{
									"key": "X-Clacks-Overhead",
									"value": "GNU Terry Pratchett",
									"name": "X-Clacks-Overhead",
									"description": "Custom header"
								}
							],
							"cookie": [],
							"body": "{\n  \"id\": 1, \n  \"nombre\": \"Victor Manuel Martinez\", \n  \"persona_tipo_id\": 1, \n  \"telefono\": \"34234\"\n}\n"
						}
					]
				},
				{
					"_postman_id": "4a3c72d7-9236-4542-b676-2c3d598d9630",
					"name": "/persona",
					"request": {
						"method": "POST",
						"header": [
							{
								"key": "Content-Type",
								"value": "application/x-www-form-urlencoded"
							}
						],
						"body": {
							"mode": "urlencoded",
							"urlencoded": [
								{
									"key": "nombre",
									"value": "Victor Manuel Martinez",
									"sessionValue": "Victor Manuel Martinez",
									"description": "Nombre de la persona",
									"type": "text"
								},
								{
									"key": "tipo",
									"value": "1",
									"sessionValue": "1",
									"description": "Id tipo de persona",
									"type": "text"
								},
								{
									"key": "telefono",
									"value": "312679898",
									"sessionValue": "312679898",
									"description": "Telefono",
									"type": "text"
								}
							]
						},
						"url": {
							"raw": "{{baseUrl}}/persona",
							"host": [
								"{{baseUrl}}"
							],
							"path": [
								"persona"
							]
						},
						"description": "Crea una nueva persona"
					},
					"response": [
						{
							"id": "376d08b9-ab88-4658-8505-2267172c8841",
							"name": "/persona",
							"originalRequest": {
								"method": "POST",
								"header": [
									{
										"key": "Content-Type",
										"value": "application/x-www-form-urlencoded",
										"disabled": false
									}
								],
								"body": {
									"mode": "urlencoded",
									"urlencoded": [
										{
											"key": "nombre",
											"value": "Victor Manuel Martinez",
											"sessionValue": "Victor Manuel Martinez",
											"description": "Nombre de la persona",
											"type": "text"
										},
										{
											"key": "persona_tipo_id",
											"value": "1",
											"sessionValue": "1",
											"description": "Id tipo de persona",
											"type": "text"
										},
										{
											"key": "telefono",
											"value": "312679898",
											"sessionValue": "312679898",
											"description": "Telefono",
											"type": "text"
										}
									]
								},
								"url": {
									"raw": "{{baseUrl}}/persona",
									"host": [
										"{{baseUrl}}"
									],
									"path": [
										"persona"
									]
								}
							},
							"status": "OK",
							"code": 200,
							"_postman_previewlanguage": "json",
							"header": [
								{
									"key": "Access-Control-Allow-Origin",
									"value": "*",
									"name": "Access-Control-Allow-Origin",
									"description": "Specifies a URI that may access the resource. For requests without credentials, the server may specify '*' as a wildcard, thereby allowing any origin to access the resource."
								},
								{
									"key": "Connection",
									"value": "keep-alive",
									"name": "Connection",
									"description": "Options that are desired for the connection"
								},
								{
									"key": "Content-Length",
									"value": "62",
									"name": "Content-Length",
									"description": "The length of the response body in octets (8-bit bytes)"
								},
								{
									"key": "Content-Type",
									"value": "application/json",
									"name": "Content-Type",
									"description": "The mime type of this content"
								},
								{
									"key": "Date",
									"value": "Tue, 07 Aug 2018 22:26:58 GMT",
									"name": "Date",
									"description": "The date and time that the message was sent"
								},
								{
									"key": "Server",
									"value": "openresty/1.9.15.1",
									"name": "Server",
									"description": "A name for the server"
								},
								{
									"key": "X-Clacks-Overhead",
									"value": "GNU Terry Pratchett",
									"name": "X-Clacks-Overhead",
									"description": "Custom header"
								}
							],
							"cookie": [],
							"body": "{\n  \"cod\": 200, \n  \"id\": 2, \n  \"mensaje\": \"guarado exitoso\"\n}\n"
						}
					]
				},
				{
					"_postman_id": "aaad62d9-429b-42ef-a7e5-470b230cb7f7",
					"name": "/persona/id",
					"request": {
						"method": "DELETE",
						"header": [],
						"body": {},
						"url": {
							"raw": "{{baseUrl}}/persona/1",
							"host": [
								"{{baseUrl}}"
							],
							"path": [
								"persona",
								"1"
							]
						},
						"description": "Borra una persona"
					},
					"response": [
						{
							"id": "a5fda78c-fc5c-44e4-97af-e3d409c60ea3",
							"name": "/persona/id",
							"originalRequest": {
								"method": "DELETE",
								"header": [],
								"body": {},
								"url": {
									"raw": "{{baseUrl}}/persona/1",
									"host": [
										"{{baseUrl}}"
									],
									"path": [
										"persona",
										"1"
									]
								}
							},
							"status": "OK",
							"code": 200,
							"_postman_previewlanguage": "json",
							"header": [
								{
									"key": "Access-Control-Allow-Origin",
									"value": "*",
									"name": "Access-Control-Allow-Origin",
									"description": "Specifies a URI that may access the resource. For requests without credentials, the server may specify '*' as a wildcard, thereby allowing any origin to access the resource."
								},
								{
									"key": "Connection",
									"value": "keep-alive",
									"name": "Connection",
									"description": "Options that are desired for the connection"
								},
								{
									"key": "Content-Length",
									"value": "50",
									"name": "Content-Length",
									"description": "The length of the response body in octets (8-bit bytes)"
								},
								{
									"key": "Content-Type",
									"value": "application/json",
									"name": "Content-Type",
									"description": "The mime type of this content"
								},
								{
									"key": "Date",
									"value": "Tue, 07 Aug 2018 22:27:25 GMT",
									"name": "Date",
									"description": "The date and time that the message was sent"
								},
								{
									"key": "Server",
									"value": "openresty/1.9.15.1",
									"name": "Server",
									"description": "A name for the server"
								},
								{
									"key": "X-Clacks-Overhead",
									"value": "GNU Terry Pratchett",
									"name": "X-Clacks-Overhead",
									"description": "Custom header"
								}
							],
							"cookie": [],
							"body": "{\n  \"cod\": 200, \n  \"mensaje\": \"Persona Borrada\"\n}\n"
						}
					]
				},
				{
					"_postman_id": "3ce0a50e-8ddd-4c69-9d7f-330de1ae1faf",
					"name": "/persona/id",
					"request": {
						"method": "PUT",
						"header": [
							{
								"key": "Content-Type",
								"value": "application/x-www-form-urlencoded"
							}
						],
						"body": {
							"mode": "urlencoded",
							"urlencoded": [
								{
									"key": "nombre",
									"value": "Victor Manuel Martinez Cuervo",
									"sessionValue": "Victor Manuel Martinez",
									"description": "Nombre de la persona",
									"type": "text"
								},
								{
									"key": "persona_tipo_id",
									"value": "2",
									"sessionValue": "1",
									"description": "Id tipo de persona",
									"type": "text"
								},
								{
									"key": "telefono",
									"value": "312679898",
									"sessionValue": "312679898",
									"description": "Telefono",
									"type": "text"
								}
							]
						},
						"url": {
							"raw": "{{baseUrl}}/persona/2",
							"host": [
								"{{baseUrl}}"
							],
							"path": [
								"persona",
								"2"
							]
						},
						"description": "actualiza informacion de una persona"
					},
					"response": [
						{
							"id": "9b05a414-cf00-48a3-8583-b170ec2a9c7b",
							"name": "/persona/id",
							"originalRequest": {
								"method": "PUT",
								"header": [
									{
										"key": "Content-Type",
										"value": "application/x-www-form-urlencoded",
										"disabled": false
									}
								],
								"body": {
									"mode": "urlencoded",
									"urlencoded": [
										{
											"key": "nombre",
											"value": "Victor Manuel Martinez Cuervo",
											"sessionValue": "Victor Manuel Martinez",
											"description": "Nombre de la persona",
											"type": "text"
										},
										{
											"key": "persona_tipo_id",
											"value": "2",
											"sessionValue": "1",
											"description": "Id tipo de persona",
											"type": "text"
										},
										{
											"key": "telefono",
											"value": "312679898",
											"sessionValue": "312679898",
											"description": "Telefono",
											"type": "text"
										}
									]
								},
								"url": {
									"raw": "{{baseUrl}}/persona/2",
									"host": [
										"{{baseUrl}}"
									],
									"path": [
										"persona",
										"2"
									]
								}
							},
							"status": "OK",
							"code": 200,
							"_postman_previewlanguage": "json",
							"header": [
								{
									"key": "Access-Control-Allow-Origin",
									"value": "*",
									"name": "Access-Control-Allow-Origin",
									"description": "Specifies a URI that may access the resource. For requests without credentials, the server may specify '*' as a wildcard, thereby allowing any origin to access the resource."
								},
								{
									"key": "Connection",
									"value": "keep-alive",
									"name": "Connection",
									"description": "Options that are desired for the connection"
								},
								{
									"key": "Content-Length",
									"value": "66",
									"name": "Content-Length",
									"description": "The length of the response body in octets (8-bit bytes)"
								},
								{
									"key": "Content-Type",
									"value": "application/json",
									"name": "Content-Type",
									"description": "The mime type of this content"
								},
								{
									"key": "Date",
									"value": "Tue, 07 Aug 2018 22:28:01 GMT",
									"name": "Date",
									"description": "The date and time that the message was sent"
								},
								{
									"key": "Server",
									"value": "openresty/1.9.15.1",
									"name": "Server",
									"description": "A name for the server"
								},
								{
									"key": "X-Clacks-Overhead",
									"value": "GNU Terry Pratchett",
									"name": "X-Clacks-Overhead",
									"description": "Custom header"
								}
							],
							"cookie": [],
							"body": "{\n  \"cod\": 200, \n  \"mensaje\": \"Actualizacion de datos completa\"\n}\n"
						}
					]
				},
				{
					"_postman_id": "9ba3a501-5eca-4bf3-b2d5-9d99b157332a",
					"name": "/persona/tipo",
					"request": {
						"method": "GET",
						"header": [],
						"body": {},
						"url": {
							"raw": "{{baseUrl}}/persona/tipo",
							"host": [
								"{{baseUrl}}"
							],
							"path": [
								"persona",
								"tipo"
							]
						},
						"description": "Obtiene lis tipos de persona dispobibles"
					},
					"response": [
						{
							"id": "ab1040c3-7fcc-4903-bd3e-2b122880aaad",
							"name": "/persona/tipo",
							"originalRequest": {
								"method": "GET",
								"header": [],
								"body": {},
								"url": {
									"raw": "{{baseUrl}}/persona/tipo",
									"host": [
										"{{baseUrl}}"
									],
									"path": [
										"persona",
										"tipo"
									]
								}
							},
							"status": "OK",
							"code": 200,
							"_postman_previewlanguage": "json",
							"header": [
								{
									"key": "Access-Control-Allow-Origin",
									"value": "*",
									"name": "Access-Control-Allow-Origin",
									"description": "Specifies a URI that may access the resource. For requests without credentials, the server may specify '*' as a wildcard, thereby allowing any origin to access the resource."
								},
								{
									"key": "Connection",
									"value": "keep-alive",
									"name": "Connection",
									"description": "Options that are desired for the connection"
								},
								{
									"key": "Content-Length",
									"value": "95",
									"name": "Content-Length",
									"description": "The length of the response body in octets (8-bit bytes)"
								},
								{
									"key": "Content-Type",
									"value": "application/json",
									"name": "Content-Type",
									"description": "The mime type of this content"
								},
								{
									"key": "Date",
									"value": "Tue, 07 Aug 2018 22:28:28 GMT",
									"name": "Date",
									"description": "The date and time that the message was sent"
								},
								{
									"key": "Server",
									"value": "openresty/1.9.15.1",
									"name": "Server",
									"description": "A name for the server"
								},
								{
									"key": "X-Clacks-Overhead",
									"value": "GNU Terry Pratchett",
									"name": "X-Clacks-Overhead",
									"description": "Custom header"
								}
							],
							"cookie": [],
							"body": "[\n  {\n    \"id\": 1, \n    \"nombre\": \"Area\"\n  }, \n  {\n    \"id\": 2, \n    \"nombre\": \"Persona\"\n  }\n]\n"
						}
					]
				}
			]
		}
	],
	"event": [
		{
			"listen": "prerequest",
			"script": {
				"id": "5a563569-c803-419a-8906-e2d0d419255e",
				"type": "text/javascript",
				"exec": [
					""
				]
			}
		},
		{
			"listen": "test",
			"script": {
				"id": "40da4bec-55fb-4313-b333-8a1e840f370f",
				"type": "text/javascript",
				"exec": [
					""
				]
			}
		}
	]
}